%YAML 1.1
%TAG !u! tag:unity3d.com,2011:
--- !u!29 &1
OcclusionCullingSettings:
  m_ObjectHideFlags: 0
  serializedVersion: 2
  m_OcclusionBakeSettings:
    smallestOccluder: 5
    smallestHole: 0.25
    backfaceThreshold: 100
  m_SceneGUID: 00000000000000000000000000000000
  m_OcclusionCullingData: {fileID: 0}
--- !u!104 &2
RenderSettings:
  m_ObjectHideFlags: 0
  serializedVersion: 9
  m_Fog: 0
  m_FogColor: {r: 0.5, g: 0.5, b: 0.5, a: 1}
  m_FogMode: 3
  m_FogDensity: 0.01
  m_LinearFogStart: 0
  m_LinearFogEnd: 300
  m_AmbientSkyColor: {r: 0.212, g: 0.227, b: 0.259, a: 1}
  m_AmbientEquatorColor: {r: 0.114, g: 0.125, b: 0.133, a: 1}
  m_AmbientGroundColor: {r: 0.047, g: 0.043, b: 0.035, a: 1}
  m_AmbientIntensity: 1
  m_AmbientMode: 0
  m_SubtractiveShadowColor: {r: 0.42, g: 0.478, b: 0.627, a: 1}
  m_SkyboxMaterial: {fileID: 2100000, guid: 95ebf50189f880e4aa17c4fdba9007aa, type: 2}
  m_HaloStrength: 0.5
  m_FlareStrength: 1
  m_FlareFadeSpeed: 3
  m_HaloTexture: {fileID: 0}
  m_SpotCookie: {fileID: 10001, guid: 0000000000000000e000000000000000, type: 0}
  m_DefaultReflectionMode: 0
  m_DefaultReflectionResolution: 128
  m_ReflectionBounces: 1
  m_ReflectionIntensity: 1
  m_CustomReflection: {fileID: 0}
  m_Sun: {fileID: 705507994}
  m_IndirectSpecularColor: {r: 0.18990731, g: 0.1426116, b: 0.15199837, a: 1}
  m_UseRadianceAmbientProbe: 0
--- !u!157 &3
LightmapSettings:
  m_ObjectHideFlags: 0
  serializedVersion: 12
  m_GIWorkflowMode: 1
  m_GISettings:
    serializedVersion: 2
    m_BounceScale: 1
    m_IndirectOutputScale: 1
    m_AlbedoBoost: 1
    m_EnvironmentLightingMode: 0
    m_EnableBakedLightmaps: 1
    m_EnableRealtimeLightmaps: 0
  m_LightmapEditorSettings:
    serializedVersion: 12
    m_Resolution: 2
    m_BakeResolution: 40
    m_AtlasSize: 1024
    m_AO: 0
    m_AOMaxDistance: 1
    m_CompAOExponent: 1
    m_CompAOExponentDirect: 0
    m_ExtractAmbientOcclusion: 0
    m_Padding: 2
    m_LightmapParameters: {fileID: 0}
    m_LightmapsBakeMode: 1
    m_TextureCompression: 1
    m_FinalGather: 0
    m_FinalGatherFiltering: 1
    m_FinalGatherRayCount: 256
    m_ReflectionCompression: 2
    m_MixedBakeMode: 2
    m_BakeBackend: 1
    m_PVRSampling: 1
    m_PVRDirectSampleCount: 32
    m_PVRSampleCount: 500
    m_PVRBounces: 2
    m_PVREnvironmentSampleCount: 500
    m_PVREnvironmentReferencePointCount: 2048
    m_PVRFilteringMode: 2
    m_PVRDenoiserTypeDirect: 0
    m_PVRDenoiserTypeIndirect: 0
    m_PVRDenoiserTypeAO: 0
    m_PVRFilterTypeDirect: 0
    m_PVRFilterTypeIndirect: 0
    m_PVRFilterTypeAO: 0
    m_PVREnvironmentMIS: 0
    m_PVRCulling: 1
    m_PVRFilteringGaussRadiusDirect: 1
    m_PVRFilteringGaussRadiusIndirect: 5
    m_PVRFilteringGaussRadiusAO: 2
    m_PVRFilteringAtrousPositionSigmaDirect: 0.5
    m_PVRFilteringAtrousPositionSigmaIndirect: 2
    m_PVRFilteringAtrousPositionSigmaAO: 1
    m_ExportTrainingData: 0
    m_TrainingDataDestination: TrainingData
    m_LightProbeSampleCountMultiplier: 4
  m_LightingDataAsset: {fileID: 0}
  m_LightingSettings: {fileID: 0}
--- !u!196 &4
NavMeshSettings:
  serializedVersion: 2
  m_ObjectHideFlags: 0
  m_BuildSettings:
    serializedVersion: 2
    agentTypeID: 0
    agentRadius: 0.5
    agentHeight: 2
    agentSlope: 45
    agentClimb: 0.4
    ledgeDropHeight: 0
    maxJumpAcrossDistance: 0
    minRegionArea: 2
    manualCellSize: 0
    cellSize: 0.16666667
    manualTileSize: 0
    tileSize: 256
    accuratePlacement: 0
    maxJobWorkers: 0
    preserveTilesOutsideBounds: 0
    debug:
      m_Flags: 0
  m_NavMeshData: {fileID: 0}
--- !u!1001 &50160448
PrefabInstance:
  m_ObjectHideFlags: 0
  serializedVersion: 2
  m_Modification:
    m_TransformParent: {fileID: 0}
    m_Modifications:
    - target: {fileID: 100000, guid: 0c5fa332187126b49a1e9939b653c735, type: 3}
      propertyPath: m_Name
      value: Rock1_A (1)
      objectReference: {fileID: 0}
    - target: {fileID: 400000, guid: 0c5fa332187126b49a1e9939b653c735, type: 3}
      propertyPath: m_RootOrder
      value: 13
      objectReference: {fileID: 0}
    - target: {fileID: 400000, guid: 0c5fa332187126b49a1e9939b653c735, type: 3}
      propertyPath: m_LocalScale.x
      value: 5.690112
      objectReference: {fileID: 0}
    - target: {fileID: 400000, guid: 0c5fa332187126b49a1e9939b653c735, type: 3}
      propertyPath: m_LocalScale.y
      value: 5.690112
      objectReference: {fileID: 0}
    - target: {fileID: 400000, guid: 0c5fa332187126b49a1e9939b653c735, type: 3}
      propertyPath: m_LocalScale.z
      value: 5.690112
      objectReference: {fileID: 0}
    - target: {fileID: 400000, guid: 0c5fa332187126b49a1e9939b653c735, type: 3}
      propertyPath: m_LocalPosition.x
      value: -36.658
      objectReference: {fileID: 0}
    - target: {fileID: 400000, guid: 0c5fa332187126b49a1e9939b653c735, type: 3}
      propertyPath: m_LocalPosition.y
      value: -14.022
      objectReference: {fileID: 0}
    - target: {fileID: 400000, guid: 0c5fa332187126b49a1e9939b653c735, type: 3}
      propertyPath: m_LocalPosition.z
      value: 47.3
      objectReference: {fileID: 0}
    - target: {fileID: 400000, guid: 0c5fa332187126b49a1e9939b653c735, type: 3}
      propertyPath: m_LocalRotation.w
      value: 1
      objectReference: {fileID: 0}
    - target: {fileID: 400000, guid: 0c5fa332187126b49a1e9939b653c735, type: 3}
      propertyPath: m_LocalRotation.x
      value: 0
      objectReference: {fileID: 0}
    - target: {fileID: 400000, guid: 0c5fa332187126b49a1e9939b653c735, type: 3}
      propertyPath: m_LocalRotation.y
      value: -0
      objectReference: {fileID: 0}
    - target: {fileID: 400000, guid: 0c5fa332187126b49a1e9939b653c735, type: 3}
      propertyPath: m_LocalRotation.z
      value: -0
      objectReference: {fileID: 0}
    - target: {fileID: 400000, guid: 0c5fa332187126b49a1e9939b653c735, type: 3}
      propertyPath: m_LocalEulerAnglesHint.x
      value: 0
      objectReference: {fileID: 0}
    - target: {fileID: 400000, guid: 0c5fa332187126b49a1e9939b653c735, type: 3}
      propertyPath: m_LocalEulerAnglesHint.y
      value: 0
      objectReference: {fileID: 0}
    - target: {fileID: 400000, guid: 0c5fa332187126b49a1e9939b653c735, type: 3}
      propertyPath: m_LocalEulerAnglesHint.z
      value: 0
      objectReference: {fileID: 0}
    m_RemovedComponents: []
  m_SourcePrefab: {fileID: 100100000, guid: 0c5fa332187126b49a1e9939b653c735, type: 3}
--- !u!1001 &182834916
PrefabInstance:
  m_ObjectHideFlags: 0
  serializedVersion: 2
  m_Modification:
    m_TransformParent: {fileID: 0}
    m_Modifications:
    - target: {fileID: 100000, guid: 05bd0d55a4d4bb348b78e309354f493e, type: 3}
      propertyPath: m_Name
      value: VegetationMedium01
      objectReference: {fileID: 0}
    - target: {fileID: 400000, guid: 05bd0d55a4d4bb348b78e309354f493e, type: 3}
      propertyPath: m_RootOrder
      value: 1
      objectReference: {fileID: 0}
    - target: {fileID: 400000, guid: 05bd0d55a4d4bb348b78e309354f493e, type: 3}
      propertyPath: m_LocalScale.x
      value: 4.8805
      objectReference: {fileID: 0}
    - target: {fileID: 400000, guid: 05bd0d55a4d4bb348b78e309354f493e, type: 3}
      propertyPath: m_LocalScale.y
      value: 4.8805
      objectReference: {fileID: 0}
    - target: {fileID: 400000, guid: 05bd0d55a4d4bb348b78e309354f493e, type: 3}
      propertyPath: m_LocalScale.z
      value: 4.8805
      objectReference: {fileID: 0}
    - target: {fileID: 400000, guid: 05bd0d55a4d4bb348b78e309354f493e, type: 3}
      propertyPath: m_LocalPosition.x
      value: -38.626457
      objectReference: {fileID: 0}
    - target: {fileID: 400000, guid: 05bd0d55a4d4bb348b78e309354f493e, type: 3}
      propertyPath: m_LocalPosition.y
      value: -8.13974
      objectReference: {fileID: 0}
    - target: {fileID: 400000, guid: 05bd0d55a4d4bb348b78e309354f493e, type: 3}
      propertyPath: m_LocalPosition.z
      value: -8.329
      objectReference: {fileID: 0}
    - target: {fileID: 400000, guid: 05bd0d55a4d4bb348b78e309354f493e, type: 3}
      propertyPath: m_LocalRotation.w
      value: 0.97791016
      objectReference: {fileID: 0}
    - target: {fileID: 400000, guid: 05bd0d55a4d4bb348b78e309354f493e, type: 3}
      propertyPath: m_LocalRotation.x
      value: -0
      objectReference: {fileID: 0}
    - target: {fileID: 400000, guid: 05bd0d55a4d4bb348b78e309354f493e, type: 3}
      propertyPath: m_LocalRotation.y
      value: -0
      objectReference: {fileID: 0}
    - target: {fileID: 400000, guid: 05bd0d55a4d4bb348b78e309354f493e, type: 3}
      propertyPath: m_LocalRotation.z
      value: -0.20902576
      objectReference: {fileID: 0}
    - target: {fileID: 400000, guid: 05bd0d55a4d4bb348b78e309354f493e, type: 3}
      propertyPath: m_LocalEulerAnglesHint.x
      value: 0
      objectReference: {fileID: 0}
    - target: {fileID: 400000, guid: 05bd0d55a4d4bb348b78e309354f493e, type: 3}
      propertyPath: m_LocalEulerAnglesHint.y
      value: 0
      objectReference: {fileID: 0}
    - target: {fileID: 400000, guid: 05bd0d55a4d4bb348b78e309354f493e, type: 3}
      propertyPath: m_LocalEulerAnglesHint.z
      value: -24.131
      objectReference: {fileID: 0}
    - target: {fileID: 400002, guid: 05bd0d55a4d4bb348b78e309354f493e, type: 3}
      propertyPath: m_LocalPosition.x
      value: -1.03
      objectReference: {fileID: 0}
    - target: {fileID: 400002, guid: 05bd0d55a4d4bb348b78e309354f493e, type: 3}
      propertyPath: m_LocalPosition.y
      value: 1.26
      objectReference: {fileID: 0}
    m_RemovedComponents: []
  m_SourcePrefab: {fileID: 100100000, guid: 05bd0d55a4d4bb348b78e309354f493e, type: 3}
--- !u!1001 &200253066
PrefabInstance:
  m_ObjectHideFlags: 0
  serializedVersion: 2
  m_Modification:
    m_TransformParent: {fileID: 0}
    m_Modifications:
    - target: {fileID: -4216859302048453862, guid: 320b1c2af77554f99a1658df4a6d3d5c, type: 3}
      propertyPath: m_RootOrder
      value: 5
      objectReference: {fileID: 0}
    - target: {fileID: -4216859302048453862, guid: 320b1c2af77554f99a1658df4a6d3d5c, type: 3}
      propertyPath: m_LocalScale.x
      value: 54.82799
      objectReference: {fileID: 0}
    - target: {fileID: -4216859302048453862, guid: 320b1c2af77554f99a1658df4a6d3d5c, type: 3}
      propertyPath: m_LocalScale.y
      value: 54.82799
      objectReference: {fileID: 0}
    - target: {fileID: -4216859302048453862, guid: 320b1c2af77554f99a1658df4a6d3d5c, type: 3}
      propertyPath: m_LocalScale.z
      value: 54.82799
      objectReference: {fileID: 0}
    - target: {fileID: -4216859302048453862, guid: 320b1c2af77554f99a1658df4a6d3d5c, type: 3}
      propertyPath: m_LocalPosition.x
      value: 32.29457
      objectReference: {fileID: 0}
    - target: {fileID: -4216859302048453862, guid: 320b1c2af77554f99a1658df4a6d3d5c, type: 3}
      propertyPath: m_LocalPosition.y
      value: -54.8
      objectReference: {fileID: 0}
    - target: {fileID: -4216859302048453862, guid: 320b1c2af77554f99a1658df4a6d3d5c, type: 3}
      propertyPath: m_LocalPosition.z
      value: 14.743334
      objectReference: {fileID: 0}
    - target: {fileID: -4216859302048453862, guid: 320b1c2af77554f99a1658df4a6d3d5c, type: 3}
      propertyPath: m_LocalRotation.w
      value: -0.24004188
      objectReference: {fileID: 0}
    - target: {fileID: -4216859302048453862, guid: 320b1c2af77554f99a1658df4a6d3d5c, type: 3}
      propertyPath: m_LocalRotation.x
      value: -0
      objectReference: {fileID: 0}
    - target: {fileID: -4216859302048453862, guid: 320b1c2af77554f99a1658df4a6d3d5c, type: 3}
      propertyPath: m_LocalRotation.y
      value: 0.9707626
      objectReference: {fileID: 0}
    - target: {fileID: -4216859302048453862, guid: 320b1c2af77554f99a1658df4a6d3d5c, type: 3}
      propertyPath: m_LocalRotation.z
      value: -0
      objectReference: {fileID: 0}
    - target: {fileID: -4216859302048453862, guid: 320b1c2af77554f99a1658df4a6d3d5c, type: 3}
      propertyPath: m_LocalEulerAnglesHint.x
      value: 0
      objectReference: {fileID: 0}
    - target: {fileID: -4216859302048453862, guid: 320b1c2af77554f99a1658df4a6d3d5c, type: 3}
      propertyPath: m_LocalEulerAnglesHint.y
      value: 207.778
      objectReference: {fileID: 0}
    - target: {fileID: -4216859302048453862, guid: 320b1c2af77554f99a1658df4a6d3d5c, type: 3}
      propertyPath: m_LocalEulerAnglesHint.z
      value: 0
      objectReference: {fileID: 0}
    - target: {fileID: -927199367670048503, guid: 320b1c2af77554f99a1658df4a6d3d5c, type: 3}
      propertyPath: m_Name
      value: Robot Kyle
      objectReference: {fileID: 0}
    m_RemovedComponents: []
  m_SourcePrefab: {fileID: 100100000, guid: 320b1c2af77554f99a1658df4a6d3d5c, type: 3}
--- !u!1 &705507993
GameObject:
  m_ObjectHideFlags: 0
  m_CorrespondingSourceObject: {fileID: 0}
  m_PrefabInstance: {fileID: 0}
  m_PrefabAsset: {fileID: 0}
  serializedVersion: 6
  m_Component:
  - component: {fileID: 705507995}
  - component: {fileID: 705507994}
  m_Layer: 0
  m_Name: Directional Light
  m_TagString: Untagged
  m_Icon: {fileID: 0}
  m_NavMeshLayer: 0
  m_StaticEditorFlags: 0
  m_IsActive: 1
--- !u!108 &705507994
Light:
  m_ObjectHideFlags: 0
  m_CorrespondingSourceObject: {fileID: 0}
  m_PrefabInstance: {fileID: 0}
  m_PrefabAsset: {fileID: 0}
  m_GameObject: {fileID: 705507993}
  m_Enabled: 1
  serializedVersion: 10
  m_Type: 1
  m_Shape: 0
  m_Color: {r: 1, g: 0.95686275, b: 0.8392157, a: 1}
  m_Intensity: 1
  m_Range: 10
  m_SpotAngle: 30
  m_InnerSpotAngle: 21.802082
  m_CookieSize: 10
  m_Shadows:
    m_Type: 2
    m_Resolution: -1
    m_CustomResolution: -1
    m_Strength: 1
    m_Bias: 0.05
    m_NormalBias: 0.4
    m_NearPlane: 0.2
    m_CullingMatrixOverride:
      e00: 1
      e01: 0
      e02: 0
      e03: 0
      e10: 0
      e11: 1
      e12: 0
      e13: 0
      e20: 0
      e21: 0
      e22: 1
      e23: 0
      e30: 0
      e31: 0
      e32: 0
      e33: 1
    m_UseCullingMatrixOverride: 0
  m_Cookie: {fileID: 0}
  m_DrawHalo: 0
  m_Flare: {fileID: 0}
  m_RenderMode: 0
  m_CullingMask:
    serializedVersion: 2
    m_Bits: 4294967295
  m_RenderingLayerMask: 1
  m_Lightmapping: 1
  m_LightShadowCasterMode: 0
  m_AreaSize: {x: 1, y: 1}
  m_BounceIntensity: 1
  m_ColorTemperature: 6570
  m_UseColorTemperature: 0
  m_BoundingSphereOverride: {x: 0, y: 0, z: 0, w: 0}
  m_UseBoundingSphereOverride: 0
  m_UseViewFrustumForShadowCasterCull: 1
  m_ShadowRadius: 0
  m_ShadowAngle: 0
--- !u!4 &705507995
Transform:
  m_ObjectHideFlags: 0
  m_CorrespondingSourceObject: {fileID: 0}
  m_PrefabInstance: {fileID: 0}
  m_PrefabAsset: {fileID: 0}
  m_GameObject: {fileID: 705507993}
  m_LocalRotation: {x: 0.40821788, y: -0.23456968, z: 0.10938163, w: 0.8754261}
  m_LocalPosition: {x: 0, y: 3, z: 0}
  m_LocalScale: {x: 1, y: 1, z: 1}
  m_Children: []
  m_Father: {fileID: 0}
  m_RootOrder: 13
  m_LocalEulerAnglesHint: {x: 50, y: -30, z: 0}
--- !u!1 &963194225
GameObject:
  m_ObjectHideFlags: 0
  m_CorrespondingSourceObject: {fileID: 0}
  m_PrefabInstance: {fileID: 0}
  m_PrefabAsset: {fileID: 0}
  serializedVersion: 6
  m_Component:
  - component: {fileID: 963194228}
  - component: {fileID: 963194227}
  - component: {fileID: 963194226}
  m_Layer: 0
  m_Name: Main Camera
  m_TagString: MainCamera
  m_Icon: {fileID: 0}
  m_NavMeshLayer: 0
  m_StaticEditorFlags: 0
  m_IsActive: 1
--- !u!81 &963194226
AudioListener:
  m_ObjectHideFlags: 0
  m_CorrespondingSourceObject: {fileID: 0}
  m_PrefabInstance: {fileID: 0}
  m_PrefabAsset: {fileID: 0}
  m_GameObject: {fileID: 963194225}
  m_Enabled: 1
--- !u!20 &963194227
Camera:
  m_ObjectHideFlags: 0
  m_CorrespondingSourceObject: {fileID: 0}
  m_PrefabInstance: {fileID: 0}
  m_PrefabAsset: {fileID: 0}
  m_GameObject: {fileID: 963194225}
  m_Enabled: 1
  serializedVersion: 2
  m_ClearFlags: 1
  m_BackGroundColor: {r: 0.19215687, g: 0.3019608, b: 0.4745098, a: 0}
  m_projectionMatrixMode: 1
  m_GateFitMode: 2
  m_FOVAxisMode: 0
  m_SensorSize: {x: 36, y: 24}
  m_LensShift: {x: 0, y: 0}
  m_FocalLength: 50
  m_NormalizedViewPortRect:
    serializedVersion: 2
    x: 0
    y: 0
    width: 1
    height: 1
  near clip plane: 0.3
  far clip plane: 1000
  field of view: 60
  orthographic: 0
  orthographic size: 5
  m_Depth: -1
  m_CullingMask:
    serializedVersion: 2
    m_Bits: 4294967295
  m_RenderingPath: -1
  m_TargetTexture: {fileID: 0}
  m_TargetDisplay: 0
  m_TargetEye: 3
  m_HDR: 1
  m_AllowMSAA: 1
  m_AllowDynamicResolution: 0
  m_ForceIntoRT: 0
  m_OcclusionCulling: 1
  m_StereoConvergence: 10
  m_StereoSeparation: 0.022
--- !u!4 &963194228
Transform:
  m_ObjectHideFlags: 0
  m_CorrespondingSourceObject: {fileID: 0}
  m_PrefabInstance: {fileID: 0}
  m_PrefabAsset: {fileID: 0}
  m_GameObject: {fileID: 963194225}
  m_LocalRotation: {x: 0.041709036, y: -0, z: -0, w: 0.99912983}
  m_LocalPosition: {x: 0, y: 26.2, z: -47.4}
  m_LocalScale: {x: 1, y: 1, z: 1}
  m_Children: []
  m_Father: {fileID: 0}
  m_RootOrder: 0
  m_LocalEulerAnglesHint: {x: 4.781, y: 0, z: 0}
--- !u!1001 &1081289887
PrefabInstance:
  m_ObjectHideFlags: 0
  serializedVersion: 2
  m_Modification:
    m_TransformParent: {fileID: 0}
    m_Modifications:
    - target: {fileID: 100000, guid: 0909f8b0896b62843898b1d23dca9f3a, type: 3}
      propertyPath: m_Name
      value: Rock1_B (2)
      objectReference: {fileID: 0}
    - target: {fileID: 400000, guid: 0909f8b0896b62843898b1d23dca9f3a, type: 3}
      propertyPath: m_RootOrder
      value: 15
      objectReference: {fileID: 0}
    - target: {fileID: 400000, guid: 0909f8b0896b62843898b1d23dca9f3a, type: 3}
      propertyPath: m_LocalScale.x
      value: 3.3707604
      objectReference: {fileID: 0}
    - target: {fileID: 400000, guid: 0909f8b0896b62843898b1d23dca9f3a, type: 3}
      propertyPath: m_LocalScale.y
      value: 3.3707604
      objectReference: {fileID: 0}
    - target: {fileID: 400000, guid: 0909f8b0896b62843898b1d23dca9f3a, type: 3}
      propertyPath: m_LocalScale.z
      value: 3.3707604
      objectReference: {fileID: 0}
    - target: {fileID: 400000, guid: 0909f8b0896b62843898b1d23dca9f3a, type: 3}
      propertyPath: m_LocalPosition.x
      value: 64
      objectReference: {fileID: 0}
    - target: {fileID: 400000, guid: 0909f8b0896b62843898b1d23dca9f3a, type: 3}
      propertyPath: m_LocalPosition.y
      value: -5.2636
      objectReference: {fileID: 0}
    - target: {fileID: 400000, guid: 0909f8b0896b62843898b1d23dca9f3a, type: 3}
      propertyPath: m_LocalPosition.z
      value: 2.8
      objectReference: {fileID: 0}
    - target: {fileID: 400000, guid: 0909f8b0896b62843898b1d23dca9f3a, type: 3}
      propertyPath: m_LocalRotation.w
      value: 1
      objectReference: {fileID: 0}
    - target: {fileID: 400000, guid: 0909f8b0896b62843898b1d23dca9f3a, type: 3}
      propertyPath: m_LocalRotation.x
      value: 0
      objectReference: {fileID: 0}
    - target: {fileID: 400000, guid: 0909f8b0896b62843898b1d23dca9f3a, type: 3}
      propertyPath: m_LocalRotation.y
      value: -0
      objectReference: {fileID: 0}
    - target: {fileID: 400000, guid: 0909f8b0896b62843898b1d23dca9f3a, type: 3}
      propertyPath: m_LocalRotation.z
      value: -0
      objectReference: {fileID: 0}
    - target: {fileID: 400000, guid: 0909f8b0896b62843898b1d23dca9f3a, type: 3}
      propertyPath: m_LocalEulerAnglesHint.x
      value: 0
      objectReference: {fileID: 0}
    - target: {fileID: 400000, guid: 0909f8b0896b62843898b1d23dca9f3a, type: 3}
      propertyPath: m_LocalEulerAnglesHint.y
      value: 0
      objectReference: {fileID: 0}
    - target: {fileID: 400000, guid: 0909f8b0896b62843898b1d23dca9f3a, type: 3}
      propertyPath: m_LocalEulerAnglesHint.z
      value: 0
      objectReference: {fileID: 0}
    m_RemovedComponents: []
  m_SourcePrefab: {fileID: 100100000, guid: 0909f8b0896b62843898b1d23dca9f3a, type: 3}
--- !u!1001 &1438068137
PrefabInstance:
  m_ObjectHideFlags: 0
  serializedVersion: 2
  m_Modification:
    m_TransformParent: {fileID: 0}
    m_Modifications:
    - target: {fileID: 100000, guid: 518ed587d1152cc45bd20aa8f7b3578e, type: 3}
      propertyPath: m_Name
      value: VegetationMedium02
      objectReference: {fileID: 0}
    - target: {fileID: 400000, guid: 518ed587d1152cc45bd20aa8f7b3578e, type: 3}
      propertyPath: m_RootOrder
      value: 2
      objectReference: {fileID: 0}
    - target: {fileID: 400000, guid: 518ed587d1152cc45bd20aa8f7b3578e, type: 3}
      propertyPath: m_LocalPosition.x
      value: -16.13
      objectReference: {fileID: 0}
    - target: {fileID: 400000, guid: 518ed587d1152cc45bd20aa8f7b3578e, type: 3}
      propertyPath: m_LocalPosition.y
      value: 10.34
      objectReference: {fileID: 0}
    - target: {fileID: 400000, guid: 518ed587d1152cc45bd20aa8f7b3578e, type: 3}
      propertyPath: m_LocalPosition.z
      value: 3.91
      objectReference: {fileID: 0}
    - target: {fileID: 400000, guid: 518ed587d1152cc45bd20aa8f7b3578e, type: 3}
      propertyPath: m_LocalRotation.w
      value: 0.97199076
      objectReference: {fileID: 0}
    - target: {fileID: 400000, guid: 518ed587d1152cc45bd20aa8f7b3578e, type: 3}
      propertyPath: m_LocalRotation.x
      value: -0.23501925
      objectReference: {fileID: 0}
    - target: {fileID: 400000, guid: 518ed587d1152cc45bd20aa8f7b3578e, type: 3}
      propertyPath: m_LocalRotation.y
      value: -0
      objectReference: {fileID: 0}
    - target: {fileID: 400000, guid: 518ed587d1152cc45bd20aa8f7b3578e, type: 3}
      propertyPath: m_LocalRotation.z
      value: -0
      objectReference: {fileID: 0}
    - target: {fileID: 400000, guid: 518ed587d1152cc45bd20aa8f7b3578e, type: 3}
      propertyPath: m_LocalEulerAnglesHint.x
      value: -27.186
      objectReference: {fileID: 0}
    - target: {fileID: 400000, guid: 518ed587d1152cc45bd20aa8f7b3578e, type: 3}
      propertyPath: m_LocalEulerAnglesHint.y
      value: 0
      objectReference: {fileID: 0}
    - target: {fileID: 400000, guid: 518ed587d1152cc45bd20aa8f7b3578e, type: 3}
      propertyPath: m_LocalEulerAnglesHint.z
      value: 0
      objectReference: {fileID: 0}
    m_RemovedComponents: []
  m_SourcePrefab: {fileID: 100100000, guid: 518ed587d1152cc45bd20aa8f7b3578e, type: 3}
--- !u!1001 &1469935646
PrefabInstance:
  m_ObjectHideFlags: 0
  serializedVersion: 2
  m_Modification:
    m_TransformParent: {fileID: 0}
    m_Modifications:
    - target: {fileID: 100000, guid: 0909f8b0896b62843898b1d23dca9f3a, type: 3}
      propertyPath: m_Name
      value: Rock1_B (1)
      objectReference: {fileID: 0}
    - target: {fileID: 400000, guid: 0909f8b0896b62843898b1d23dca9f3a, type: 3}
      propertyPath: m_RootOrder
      value: 12
      objectReference: {fileID: 0}
    - target: {fileID: 400000, guid: 0909f8b0896b62843898b1d23dca9f3a, type: 3}
      propertyPath: m_LocalScale.x
      value: 1.7447
      objectReference: {fileID: 0}
    - target: {fileID: 400000, guid: 0909f8b0896b62843898b1d23dca9f3a, type: 3}
      propertyPath: m_LocalScale.y
      value: 1.7447
      objectReference: {fileID: 0}
    - target: {fileID: 400000, guid: 0909f8b0896b62843898b1d23dca9f3a, type: 3}
      propertyPath: m_LocalScale.z
      value: 1.7447
      objectReference: {fileID: 0}
    - target: {fileID: 400000, guid: 0909f8b0896b62843898b1d23dca9f3a, type: 3}
      propertyPath: m_LocalPosition.x
      value: 6.9223
      objectReference: {fileID: 0}
    - target: {fileID: 400000, guid: 0909f8b0896b62843898b1d23dca9f3a, type: 3}
      propertyPath: m_LocalPosition.y
      value: -0.50288
      objectReference: {fileID: 0}
    - target: {fileID: 400000, guid: 0909f8b0896b62843898b1d23dca9f3a, type: 3}
      propertyPath: m_LocalPosition.z
      value: 10.6
      objectReference: {fileID: 0}
    - target: {fileID: 400000, guid: 0909f8b0896b62843898b1d23dca9f3a, type: 3}
      propertyPath: m_LocalRotation.w
      value: 1
      objectReference: {fileID: 0}
    - target: {fileID: 400000, guid: 0909f8b0896b62843898b1d23dca9f3a, type: 3}
      propertyPath: m_LocalRotation.x
      value: 0
      objectReference: {fileID: 0}
    - target: {fileID: 400000, guid: 0909f8b0896b62843898b1d23dca9f3a, type: 3}
      propertyPath: m_LocalRotation.y
      value: -0
      objectReference: {fileID: 0}
    - target: {fileID: 400000, guid: 0909f8b0896b62843898b1d23dca9f3a, type: 3}
      propertyPath: m_LocalRotation.z
      value: -0
      objectReference: {fileID: 0}
    - target: {fileID: 400000, guid: 0909f8b0896b62843898b1d23dca9f3a, type: 3}
      propertyPath: m_LocalEulerAnglesHint.x
      value: 0
      objectReference: {fileID: 0}
    - target: {fileID: 400000, guid: 0909f8b0896b62843898b1d23dca9f3a, type: 3}
      propertyPath: m_LocalEulerAnglesHint.y
      value: 0
      objectReference: {fileID: 0}
    - target: {fileID: 400000, guid: 0909f8b0896b62843898b1d23dca9f3a, type: 3}
      propertyPath: m_LocalEulerAnglesHint.z
      value: 0
      objectReference: {fileID: 0}
    - target: {fileID: 2300000, guid: 0909f8b0896b62843898b1d23dca9f3a, type: 3}
      propertyPath: m_Enabled
      value: 1
      objectReference: {fileID: 0}
    m_RemovedComponents: []
  m_SourcePrefab: {fileID: 100100000, guid: 0909f8b0896b62843898b1d23dca9f3a, type: 3}
--- !u!1001 &1523248866
PrefabInstance:
  m_ObjectHideFlags: 0
  serializedVersion: 2
  m_Modification:
    m_TransformParent: {fileID: 0}
    m_Modifications:
    - target: {fileID: 100000, guid: 0909f8b0896b62843898b1d23dca9f3a, type: 3}
      propertyPath: m_Name
      value: Rock1_B
      objectReference: {fileID: 0}
    - target: {fileID: 400000, guid: 0909f8b0896b62843898b1d23dca9f3a, type: 3}
      propertyPath: m_RootOrder
      value: 4
      objectReference: {fileID: 0}
    - target: {fileID: 400000, guid: 0909f8b0896b62843898b1d23dca9f3a, type: 3}
      propertyPath: m_LocalPosition.x
      value: 1.8
      objectReference: {fileID: 0}
    - target: {fileID: 400000, guid: 0909f8b0896b62843898b1d23dca9f3a, type: 3}
      propertyPath: m_LocalPosition.y
      value: 1.6775631
      objectReference: {fileID: 0}
    - target: {fileID: 400000, guid: 0909f8b0896b62843898b1d23dca9f3a, type: 3}
      propertyPath: m_LocalPosition.z
      value: -0.6
      objectReference: {fileID: 0}
    - target: {fileID: 400000, guid: 0909f8b0896b62843898b1d23dca9f3a, type: 3}
      propertyPath: m_LocalRotation.w
      value: 1
      objectReference: {fileID: 0}
    - target: {fileID: 400000, guid: 0909f8b0896b62843898b1d23dca9f3a, type: 3}
      propertyPath: m_LocalRotation.x
      value: 0
      objectReference: {fileID: 0}
    - target: {fileID: 400000, guid: 0909f8b0896b62843898b1d23dca9f3a, type: 3}
      propertyPath: m_LocalRotation.y
      value: -0
      objectReference: {fileID: 0}
    - target: {fileID: 400000, guid: 0909f8b0896b62843898b1d23dca9f3a, type: 3}
      propertyPath: m_LocalRotation.z
      value: -0
      objectReference: {fileID: 0}
    - target: {fileID: 400000, guid: 0909f8b0896b62843898b1d23dca9f3a, type: 3}
      propertyPath: m_LocalEulerAnglesHint.x
      value: 0
      objectReference: {fileID: 0}
    - target: {fileID: 400000, guid: 0909f8b0896b62843898b1d23dca9f3a, type: 3}
      propertyPath: m_LocalEulerAnglesHint.y
      value: 0
      objectReference: {fileID: 0}
    - target: {fileID: 400000, guid: 0909f8b0896b62843898b1d23dca9f3a, type: 3}
      propertyPath: m_LocalEulerAnglesHint.z
      value: 0
      objectReference: {fileID: 0}
    m_RemovedComponents: []
  m_SourcePrefab: {fileID: 100100000, guid: 0909f8b0896b62843898b1d23dca9f3a, type: 3}
--- !u!1001 &1535144970
PrefabInstance:
  m_ObjectHideFlags: 0
  serializedVersion: 2
  m_Modification:
    m_TransformParent: {fileID: 0}
    m_Modifications:
    - target: {fileID: 100000, guid: 9ad0ee2e631896b49a1c0a73b7d815b5, type: 3}
      propertyPath: m_Name
      value: VegetationMedium04
      objectReference: {fileID: 0}
    - target: {fileID: 400000, guid: 9ad0ee2e631896b49a1c0a73b7d815b5, type: 3}
      propertyPath: m_RootOrder
      value: 3
      objectReference: {fileID: 0}
    - target: {fileID: 400000, guid: 9ad0ee2e631896b49a1c0a73b7d815b5, type: 3}
      propertyPath: m_LocalPosition.x
      value: -30.932756
      objectReference: {fileID: 0}
    - target: {fileID: 400000, guid: 9ad0ee2e631896b49a1c0a73b7d815b5, type: 3}
      propertyPath: m_LocalPosition.y
      value: 0.017188609
      objectReference: {fileID: 0}
    - target: {fileID: 400000, guid: 9ad0ee2e631896b49a1c0a73b7d815b5, type: 3}
      propertyPath: m_LocalPosition.z
      value: 7.5933123
      objectReference: {fileID: 0}
    - target: {fileID: 400000, guid: 9ad0ee2e631896b49a1c0a73b7d815b5, type: 3}
      propertyPath: m_LocalRotation.w
      value: 1
      objectReference: {fileID: 0}
    - target: {fileID: 400000, guid: 9ad0ee2e631896b49a1c0a73b7d815b5, type: 3}
      propertyPath: m_LocalRotation.x
      value: 0
      objectReference: {fileID: 0}
    - target: {fileID: 400000, guid: 9ad0ee2e631896b49a1c0a73b7d815b5, type: 3}
      propertyPath: m_LocalRotation.y
      value: 0
      objectReference: {fileID: 0}
    - target: {fileID: 400000, guid: 9ad0ee2e631896b49a1c0a73b7d815b5, type: 3}
      propertyPath: m_LocalRotation.z
      value: 0
      objectReference: {fileID: 0}
    - target: {fileID: 400000, guid: 9ad0ee2e631896b49a1c0a73b7d815b5, type: 3}
      propertyPath: m_LocalEulerAnglesHint.x
      value: 0
      objectReference: {fileID: 0}
    - target: {fileID: 400000, guid: 9ad0ee2e631896b49a1c0a73b7d815b5, type: 3}
      propertyPath: m_LocalEulerAnglesHint.y
      value: 0
      objectReference: {fileID: 0}
    - target: {fileID: 400000, guid: 9ad0ee2e631896b49a1c0a73b7d815b5, type: 3}
      propertyPath: m_LocalEulerAnglesHint.z
      value: 0
      objectReference: {fileID: 0}
    m_RemovedComponents: []
  m_SourcePrefab: {fileID: 100100000, guid: 9ad0ee2e631896b49a1c0a73b7d815b5, type: 3}
--- !u!1001 &1710106001
PrefabInstance:
  m_ObjectHideFlags: 0
  serializedVersion: 2
  m_Modification:
    m_TransformParent: {fileID: 0}
    m_Modifications:
    - target: {fileID: 100000, guid: 0909f8b0896b62843898b1d23dca9f3a, type: 3}
      propertyPath: m_Name
      value: Rock1_B (3)
      objectReference: {fileID: 0}
    - target: {fileID: 400000, guid: 0909f8b0896b62843898b1d23dca9f3a, type: 3}
      propertyPath: m_RootOrder
      value: 16
      objectReference: {fileID: 0}
    - target: {fileID: 400000, guid: 0909f8b0896b62843898b1d23dca9f3a, type: 3}
      propertyPath: m_LocalScale.x
      value: 1.7447
      objectReference: {fileID: 0}
    - target: {fileID: 400000, guid: 0909f8b0896b62843898b1d23dca9f3a, type: 3}
      propertyPath: m_LocalScale.y
      value: 1.7447
      objectReference: {fileID: 0}
    - target: {fileID: 400000, guid: 0909f8b0896b62843898b1d23dca9f3a, type: 3}
      propertyPath: m_LocalScale.z
      value: 1.7447
      objectReference: {fileID: 0}
    - target: {fileID: 400000, guid: 0909f8b0896b62843898b1d23dca9f3a, type: 3}
      propertyPath: m_LocalPosition.x
      value: -7.8
      objectReference: {fileID: 0}
    - target: {fileID: 400000, guid: 0909f8b0896b62843898b1d23dca9f3a, type: 3}
      propertyPath: m_LocalPosition.y
      value: 39.3
      objectReference: {fileID: 0}
    - target: {fileID: 400000, guid: 0909f8b0896b62843898b1d23dca9f3a, type: 3}
      propertyPath: m_LocalPosition.z
      value: 1.14
      objectReference: {fileID: 0}
    - target: {fileID: 400000, guid: 0909f8b0896b62843898b1d23dca9f3a, type: 3}
      propertyPath: m_LocalRotation.w
      value: -0.007634379
      objectReference: {fileID: 0}
    - target: {fileID: 400000, guid: 0909f8b0896b62843898b1d23dca9f3a, type: 3}
      propertyPath: m_LocalRotation.x
      value: -0
      objectReference: {fileID: 0}
    - target: {fileID: 400000, guid: 0909f8b0896b62843898b1d23dca9f3a, type: 3}
      propertyPath: m_LocalRotation.y
      value: -0
      objectReference: {fileID: 0}
    - target: {fileID: 400000, guid: 0909f8b0896b62843898b1d23dca9f3a, type: 3}
      propertyPath: m_LocalRotation.z
      value: -0.9999709
      objectReference: {fileID: 0}
    - target: {fileID: 400000, guid: 0909f8b0896b62843898b1d23dca9f3a, type: 3}
      propertyPath: m_LocalEulerAnglesHint.x
      value: 0
      objectReference: {fileID: 0}
    - target: {fileID: 400000, guid: 0909f8b0896b62843898b1d23dca9f3a, type: 3}
      propertyPath: m_LocalEulerAnglesHint.y
      value: 0
      objectReference: {fileID: 0}
    - target: {fileID: 400000, guid: 0909f8b0896b62843898b1d23dca9f3a, type: 3}
      propertyPath: m_LocalEulerAnglesHint.z
      value: -180.875
      objectReference: {fileID: 0}
    - target: {fileID: 2300000, guid: 0909f8b0896b62843898b1d23dca9f3a, type: 3}
      propertyPath: m_Enabled
      value: 1
      objectReference: {fileID: 0}
    m_RemovedComponents: []
  m_SourcePrefab: {fileID: 100100000, guid: 0909f8b0896b62843898b1d23dca9f3a, type: 3}
--- !u!1001 &1736795569
PrefabInstance:
  m_ObjectHideFlags: 0
  serializedVersion: 2
  m_Modification:
    m_TransformParent: {fileID: 0}
    m_Modifications:
    - target: {fileID: 100000, guid: 1bbc79192e08ae0459d75d02d1f45249, type: 3}
      propertyPath: m_Name
      value: VegetationMedium03 (1)
      objectReference: {fileID: 0}
    - target: {fileID: 400000, guid: 1bbc79192e08ae0459d75d02d1f45249, type: 3}
      propertyPath: m_RootOrder
      value: 17
      objectReference: {fileID: 0}
    - target: {fileID: 400000, guid: 1bbc79192e08ae0459d75d02d1f45249, type: 3}
      propertyPath: m_LocalScale.x
      value: 3.8096
      objectReference: {fileID: 0}
    - target: {fileID: 400000, guid: 1bbc79192e08ae0459d75d02d1f45249, type: 3}
      propertyPath: m_LocalScale.y
      value: 3.8096
      objectReference: {fileID: 0}
    - target: {fileID: 400000, guid: 1bbc79192e08ae0459d75d02d1f45249, type: 3}
      propertyPath: m_LocalScale.z
      value: 3.8096
      objectReference: {fileID: 0}
    - target: {fileID: 400000, guid: 1bbc79192e08ae0459d75d02d1f45249, type: 3}
      propertyPath: m_LocalPosition.x
      value: 36.2
      objectReference: {fileID: 0}
    - target: {fileID: 400000, guid: 1bbc79192e08ae0459d75d02d1f45249, type: 3}
      propertyPath: m_LocalPosition.y
      value: 0.1
      objectReference: {fileID: 0}
    - target: {fileID: 400000, guid: 1bbc79192e08ae0459d75d02d1f45249, type: 3}
      propertyPath: m_LocalPosition.z
      value: -9.77
      objectReference: {fileID: 0}
    - target: {fileID: 400000, guid: 1bbc79192e08ae0459d75d02d1f45249, type: 3}
      propertyPath: m_LocalRotation.w
      value: 1
      objectReference: {fileID: 0}
    - target: {fileID: 400000, guid: 1bbc79192e08ae0459d75d02d1f45249, type: 3}
      propertyPath: m_LocalRotation.x
      value: 0
      objectReference: {fileID: 0}
    - target: {fileID: 400000, guid: 1bbc79192e08ae0459d75d02d1f45249, type: 3}
      propertyPath: m_LocalRotation.y
      value: 0
      objectReference: {fileID: 0}
    - target: {fileID: 400000, guid: 1bbc79192e08ae0459d75d02d1f45249, type: 3}
      propertyPath: m_LocalRotation.z
      value: 0
      objectReference: {fileID: 0}
    - target: {fileID: 400000, guid: 1bbc79192e08ae0459d75d02d1f45249, type: 3}
      propertyPath: m_LocalEulerAnglesHint.x
      value: 0
      objectReference: {fileID: 0}
    - target: {fileID: 400000, guid: 1bbc79192e08ae0459d75d02d1f45249, type: 3}
      propertyPath: m_LocalEulerAnglesHint.y
      value: 0
      objectReference: {fileID: 0}
    - target: {fileID: 400000, guid: 1bbc79192e08ae0459d75d02d1f45249, type: 3}
      propertyPath: m_LocalEulerAnglesHint.z
      value: 0
      objectReference: {fileID: 0}
    m_RemovedComponents: []
  m_SourcePrefab: {fileID: 100100000, guid: 1bbc79192e08ae0459d75d02d1f45249, type: 3}
--- !u!1001 &2016263295
PrefabInstance:
  m_ObjectHideFlags: 0
  serializedVersion: 2
  m_Modification:
    m_TransformParent: {fileID: 0}
    m_Modifications:
    - target: {fileID: 100000, guid: 0c5fa332187126b49a1e9939b653c735, type: 3}
      propertyPath: m_Name
      value: Rock1_A (2)
      objectReference: {fileID: 0}
    - target: {fileID: 400000, guid: 0c5fa332187126b49a1e9939b653c735, type: 3}
      propertyPath: m_RootOrder
      value: 14
      objectReference: {fileID: 0}
    - target: {fileID: 400000, guid: 0c5fa332187126b49a1e9939b653c735, type: 3}
      propertyPath: m_LocalScale.x
      value: 5.690112
      objectReference: {fileID: 0}
    - target: {fileID: 400000, guid: 0c5fa332187126b49a1e9939b653c735, type: 3}
      propertyPath: m_LocalScale.y
      value: 5.690112
      objectReference: {fileID: 0}
    - target: {fileID: 400000, guid: 0c5fa332187126b49a1e9939b653c735, type: 3}
      propertyPath: m_LocalScale.z
      value: 5.690112
      objectReference: {fileID: 0}
    - target: {fileID: 400000, guid: 0c5fa332187126b49a1e9939b653c735, type: 3}
      propertyPath: m_LocalPosition.x
      value: -54.8
      objectReference: {fileID: 0}
    - target: {fileID: 400000, guid: 0c5fa332187126b49a1e9939b653c735, type: 3}
      propertyPath: m_LocalPosition.y
      value: -14.022
      objectReference: {fileID: 0}
    - target: {fileID: 400000, guid: 0c5fa332187126b49a1e9939b653c735, type: 3}
      propertyPath: m_LocalPosition.z
      value: 28.3
      objectReference: {fileID: 0}
    - target: {fileID: 400000, guid: 0c5fa332187126b49a1e9939b653c735, type: 3}
      propertyPath: m_LocalRotation.w
      value: 1
      objectReference: {fileID: 0}
    - target: {fileID: 400000, guid: 0c5fa332187126b49a1e9939b653c735, type: 3}
      propertyPath: m_LocalRotation.x
      value: 0
      objectReference: {fileID: 0}
    - target: {fileID: 400000, guid: 0c5fa332187126b49a1e9939b653c735, type: 3}
      propertyPath: m_LocalRotation.y
      value: -0
      objectReference: {fileID: 0}
    - target: {fileID: 400000, guid: 0c5fa332187126b49a1e9939b653c735, type: 3}
      propertyPath: m_LocalRotation.z
      value: -0
      objectReference: {fileID: 0}
    - target: {fileID: 400000, guid: 0c5fa332187126b49a1e9939b653c735, type: 3}
      propertyPath: m_LocalEulerAnglesHint.x
      value: 0
      objectReference: {fileID: 0}
    - target: {fileID: 400000, guid: 0c5fa332187126b49a1e9939b653c735, type: 3}
      propertyPath: m_LocalEulerAnglesHint.y
      value: 0
      objectReference: {fileID: 0}
    - target: {fileID: 400000, guid: 0c5fa332187126b49a1e9939b653c735, type: 3}
      propertyPath: m_LocalEulerAnglesHint.z
      value: 0
      objectReference: {fileID: 0}
    m_RemovedComponents: []
  m_SourcePrefab: {fileID: 100100000, guid: 0c5fa332187126b49a1e9939b653c735, type: 3}
--- !u!1001 &2085368080
PrefabInstance:
  m_ObjectHideFlags: 0
  serializedVersion: 2
  m_Modification:
    m_TransformParent: {fileID: 0}
    m_Modifications:
    - target: {fileID: 100000, guid: 1bbc79192e08ae0459d75d02d1f45249, type: 3}
      propertyPath: m_Name
      value: VegetationMedium03
      objectReference: {fileID: 0}
    - target: {fileID: 400000, guid: 1bbc79192e08ae0459d75d02d1f45249, type: 3}
      propertyPath: m_RootOrder
      value: 1
      objectReference: {fileID: 0}
    - target: {fileID: 400000, guid: 1bbc79192e08ae0459d75d02d1f45249, type: 3}
      propertyPath: m_LocalScale.x
      value: 3.8096
      objectReference: {fileID: 0}
    - target: {fileID: 400000, guid: 1bbc79192e08ae0459d75d02d1f45249, type: 3}
      propertyPath: m_LocalScale.y
      value: 3.8096
      objectReference: {fileID: 0}
    - target: {fileID: 400000, guid: 1bbc79192e08ae0459d75d02d1f45249, type: 3}
      propertyPath: m_LocalScale.z
      value: 3.8096
      objectReference: {fileID: 0}
    - target: {fileID: 400000, guid: 1bbc79192e08ae0459d75d02d1f45249, type: 3}
      propertyPath: m_LocalPosition.x
      value: -8.3325
      objectReference: {fileID: 0}
    - target: {fileID: 400000, guid: 1bbc79192e08ae0459d75d02d1f45249, type: 3}
      propertyPath: m_LocalPosition.y
      value: -0.52
      objectReference: {fileID: 0}
    - target: {fileID: 400000, guid: 1bbc79192e08ae0459d75d02d1f45249, type: 3}
      propertyPath: m_LocalPosition.z
      value: -1.0001
      objectReference: {fileID: 0}
    - target: {fileID: 400000, guid: 1bbc79192e08ae0459d75d02d1f45249, type: 3}
      propertyPath: m_LocalRotation.w
      value: 1
      objectReference: {fileID: 0}
    - target: {fileID: 400000, guid: 1bbc79192e08ae0459d75d02d1f45249, type: 3}
      propertyPath: m_LocalRotation.x
      value: 0
      objectReference: {fileID: 0}
    - target: {fileID: 400000, guid: 1bbc79192e08ae0459d75d02d1f45249, type: 3}
      propertyPath: m_LocalRotation.y
      value: 0
      objectReference: {fileID: 0}
    - target: {fileID: 400000, guid: 1bbc79192e08ae0459d75d02d1f45249, type: 3}
      propertyPath: m_LocalRotation.z
      value: 0
      objectReference: {fileID: 0}
    - target: {fileID: 400000, guid: 1bbc79192e08ae0459d75d02d1f45249, type: 3}
      propertyPath: m_LocalEulerAnglesHint.x
      value: 0
      objectReference: {fileID: 0}
    - target: {fileID: 400000, guid: 1bbc79192e08ae0459d75d02d1f45249, type: 3}
      propertyPath: m_LocalEulerAnglesHint.y
      value: 0
      objectReference: {fileID: 0}
    - target: {fileID: 400000, guid: 1bbc79192e08ae0459d75d02d1f45249, type: 3}
      propertyPath: m_LocalEulerAnglesHint.z
      value: 0
      objectReference: {fileID: 0}
    m_RemovedComponents: []
  m_SourcePrefab: {fileID: 100100000, guid: 1bbc79192e08ae0459d75d02d1f45249, type: 3}
--- !u!1001 &2090783803
PrefabInstance:
  m_ObjectHideFlags: 0
  serializedVersion: 2
  m_Modification:
    m_TransformParent: {fileID: 0}
    m_Modifications:
    - target: {fileID: 100000, guid: 0c5fa332187126b49a1e9939b653c735, type: 3}
      propertyPath: m_Name
      value: Rock1_A
      objectReference: {fileID: 0}
    - target: {fileID: 400000, guid: 0c5fa332187126b49a1e9939b653c735, type: 3}
      propertyPath: m_RootOrder
      value: 6
      objectReference: {fileID: 0}
    - target: {fileID: 400000, guid: 0c5fa332187126b49a1e9939b653c735, type: 3}
      propertyPath: m_LocalScale.x
      value: 2.2631
      objectReference: {fileID: 0}
    - target: {fileID: 400000, guid: 0c5fa332187126b49a1e9939b653c735, type: 3}
      propertyPath: m_LocalScale.y
      value: 2.2631
      objectReference: {fileID: 0}
    - target: {fileID: 400000, guid: 0c5fa332187126b49a1e9939b653c735, type: 3}
      propertyPath: m_LocalScale.z
      value: 2.2631
      objectReference: {fileID: 0}
    - target: {fileID: 400000, guid: 0c5fa332187126b49a1e9939b653c735, type: 3}
      propertyPath: m_LocalPosition.x
      value: -12.992
      objectReference: {fileID: 0}
    - target: {fileID: 400000, guid: 0c5fa332187126b49a1e9939b653c735, type: 3}
      propertyPath: m_LocalPosition.y
      value: -3.988
      objectReference: {fileID: 0}
    - target: {fileID: 400000, guid: 0c5fa332187126b49a1e9939b653c735, type: 3}
      propertyPath: m_LocalPosition.z
      value: 15.9
      objectReference: {fileID: 0}
    - target: {fileID: 400000, guid: 0c5fa332187126b49a1e9939b653c735, type: 3}
      propertyPath: m_LocalRotation.w
      value: 1
      objectReference: {fileID: 0}
    - target: {fileID: 400000, guid: 0c5fa332187126b49a1e9939b653c735, type: 3}
      propertyPath: m_LocalRotation.x
      value: 0
      objectReference: {fileID: 0}
    - target: {fileID: 400000, guid: 0c5fa332187126b49a1e9939b653c735, type: 3}
      propertyPath: m_LocalRotation.y
      value: -0
      objectReference: {fileID: 0}
    - target: {fileID: 400000, guid: 0c5fa332187126b49a1e9939b653c735, type: 3}
      propertyPath: m_LocalRotation.z
      value: -0
      objectReference: {fileID: 0}
    - target: {fileID: 400000, guid: 0c5fa332187126b49a1e9939b653c735, type: 3}
      propertyPath: m_LocalEulerAnglesHint.x
      value: 0
      objectReference: {fileID: 0}
    - target: {fileID: 400000, guid: 0c5fa332187126b49a1e9939b653c735, type: 3}
      propertyPath: m_LocalEulerAnglesHint.y
      value: 0
      objectReference: {fileID: 0}
    - target: {fileID: 400000, guid: 0c5fa332187126b49a1e9939b653c735, type: 3}
      propertyPath: m_LocalEulerAnglesHint.z
      value: 0
      objectReference: {fileID: 0}
    m_RemovedComponents: []
  m_SourcePrefab: {fileID: 100100000, guid: 0c5fa332187126b49a1e9939b653c735, type: 3}
--- !u!1001 &970971062399104784
PrefabInstance:
  m_ObjectHideFlags: 0
  serializedVersion: 2
  m_Modification:
    m_TransformParent: {fileID: 0}
    m_Modifications:
    - target: {fileID: 1568816227332560939, guid: a1d807fccbd6f4b3d9e623847a28d5d1, type: 3}
      propertyPath: m_Name
      value: Launch Pad
      objectReference: {fileID: 0}
    - target: {fileID: 1581382826046997092, guid: a1d807fccbd6f4b3d9e623847a28d5d1, type: 3}
      propertyPath: m_RootOrder
      value: 8
      objectReference: {fileID: 0}
    - target: {fileID: 1581382826046997092, guid: a1d807fccbd6f4b3d9e623847a28d5d1, type: 3}
      propertyPath: m_LocalPosition.x
      value: -29.86
      objectReference: {fileID: 0}
    - target: {fileID: 1581382826046997092, guid: a1d807fccbd6f4b3d9e623847a28d5d1, type: 3}
      propertyPath: m_LocalPosition.y
      value: 0.06
      objectReference: {fileID: 0}
    - target: {fileID: 1581382826046997092, guid: a1d807fccbd6f4b3d9e623847a28d5d1, type: 3}
      propertyPath: m_LocalPosition.z
      value: 0
      objectReference: {fileID: 0}
    - target: {fileID: 1581382826046997092, guid: a1d807fccbd6f4b3d9e623847a28d5d1, type: 3}
      propertyPath: m_LocalRotation.w
      value: 1
      objectReference: {fileID: 0}
    - target: {fileID: 1581382826046997092, guid: a1d807fccbd6f4b3d9e623847a28d5d1, type: 3}
      propertyPath: m_LocalRotation.x
      value: 0
      objectReference: {fileID: 0}
    - target: {fileID: 1581382826046997092, guid: a1d807fccbd6f4b3d9e623847a28d5d1, type: 3}
      propertyPath: m_LocalRotation.y
      value: 0
      objectReference: {fileID: 0}
    - target: {fileID: 1581382826046997092, guid: a1d807fccbd6f4b3d9e623847a28d5d1, type: 3}
      propertyPath: m_LocalRotation.z
      value: 0
      objectReference: {fileID: 0}
    - target: {fileID: 1581382826046997092, guid: a1d807fccbd6f4b3d9e623847a28d5d1, type: 3}
      propertyPath: m_LocalEulerAnglesHint.x
      value: 0
      objectReference: {fileID: 0}
    - target: {fileID: 1581382826046997092, guid: a1d807fccbd6f4b3d9e623847a28d5d1, type: 3}
      propertyPath: m_LocalEulerAnglesHint.y
      value: 0
      objectReference: {fileID: 0}
    - target: {fileID: 1581382826046997092, guid: a1d807fccbd6f4b3d9e623847a28d5d1, type: 3}
      propertyPath: m_LocalEulerAnglesHint.z
      value: 0
      objectReference: {fileID: 0}
    m_RemovedComponents: []
  m_SourcePrefab: {fileID: 100100000, guid: a1d807fccbd6f4b3d9e623847a28d5d1, type: 3}
--- !u!1001 &1507170997249422414
PrefabInstance:
  m_ObjectHideFlags: 0
  serializedVersion: 2
  m_Modification:
    m_TransformParent: {fileID: 0}
    m_Modifications:
    - target: {fileID: 271950354401567790, guid: c9204a083fa374203ad4cf0ecc226996, type: 3}
      propertyPath: m_Name
      value: Ground
      objectReference: {fileID: 0}
    - target: {fileID: 2638776972567360675, guid: c9204a083fa374203ad4cf0ecc226996, type: 3}
      propertyPath: m_Materials.Array.data[0]
      value: 
      objectReference: {fileID: 2100000, guid: d805d830c4023774cb6259aca09f431e, type: 2}
    - target: {fileID: 3484105694171452279, guid: c9204a083fa374203ad4cf0ecc226996, type: 3}
      propertyPath: m_RootOrder
      value: 7
      objectReference: {fileID: 0}
    - target: {fileID: 3484105694171452279, guid: c9204a083fa374203ad4cf0ecc226996, type: 3}
      propertyPath: m_LocalPosition.x
      value: 0
      objectReference: {fileID: 0}
    - target: {fileID: 3484105694171452279, guid: c9204a083fa374203ad4cf0ecc226996, type: 3}
      propertyPath: m_LocalPosition.y
      value: -15
      objectReference: {fileID: 0}
    - target: {fileID: 3484105694171452279, guid: c9204a083fa374203ad4cf0ecc226996, type: 3}
      propertyPath: m_LocalPosition.z
      value: 0
      objectReference: {fileID: 0}
    - target: {fileID: 3484105694171452279, guid: c9204a083fa374203ad4cf0ecc226996, type: 3}
      propertyPath: m_LocalRotation.w
      value: 1
      objectReference: {fileID: 0}
    - target: {fileID: 3484105694171452279, guid: c9204a083fa374203ad4cf0ecc226996, type: 3}
      propertyPath: m_LocalRotation.x
      value: 0
      objectReference: {fileID: 0}
    - target: {fileID: 3484105694171452279, guid: c9204a083fa374203ad4cf0ecc226996, type: 3}
      propertyPath: m_LocalRotation.y
      value: 0
      objectReference: {fileID: 0}
    - target: {fileID: 3484105694171452279, guid: c9204a083fa374203ad4cf0ecc226996, type: 3}
      propertyPath: m_LocalRotation.z
      value: 0
      objectReference: {fileID: 0}
    - target: {fileID: 3484105694171452279, guid: c9204a083fa374203ad4cf0ecc226996, type: 3}
      propertyPath: m_LocalEulerAnglesHint.x
      value: 0
      objectReference: {fileID: 0}
    - target: {fileID: 3484105694171452279, guid: c9204a083fa374203ad4cf0ecc226996, type: 3}
      propertyPath: m_LocalEulerAnglesHint.y
      value: 0
      objectReference: {fileID: 0}
    - target: {fileID: 3484105694171452279, guid: c9204a083fa374203ad4cf0ecc226996, type: 3}
      propertyPath: m_LocalEulerAnglesHint.z
      value: 0
      objectReference: {fileID: 0}
    m_RemovedComponents: []
  m_SourcePrefab: {fileID: 100100000, guid: c9204a083fa374203ad4cf0ecc226996, type: 3}
--- !u!1001 &5358485082944704395
PrefabInstance:
  m_ObjectHideFlags: 0
  serializedVersion: 2
  m_Modification:
    m_TransformParent: {fileID: 0}
    m_Modifications:
    - target: {fileID: 2661382043122964953, guid: 5fbca904ddad54333a2af0698375076d, type: 3}
      propertyPath: m_RootOrder
      value: 9
      objectReference: {fileID: 0}
    - target: {fileID: 2661382043122964953, guid: 5fbca904ddad54333a2af0698375076d, type: 3}
      propertyPath: m_LocalPosition.x
      value: 29.97
      objectReference: {fileID: 0}
    - target: {fileID: 2661382043122964953, guid: 5fbca904ddad54333a2af0698375076d, type: 3}
      propertyPath: m_LocalPosition.y
      value: 0.06
      objectReference: {fileID: 0}
    - target: {fileID: 2661382043122964953, guid: 5fbca904ddad54333a2af0698375076d, type: 3}
      propertyPath: m_LocalPosition.z
      value: 0
      objectReference: {fileID: 0}
    - target: {fileID: 2661382043122964953, guid: 5fbca904ddad54333a2af0698375076d, type: 3}
      propertyPath: m_LocalRotation.w
      value: 1
      objectReference: {fileID: 0}
    - target: {fileID: 2661382043122964953, guid: 5fbca904ddad54333a2af0698375076d, type: 3}
      propertyPath: m_LocalRotation.x
      value: 0
      objectReference: {fileID: 0}
    - target: {fileID: 2661382043122964953, guid: 5fbca904ddad54333a2af0698375076d, type: 3}
      propertyPath: m_LocalRotation.y
      value: 0
      objectReference: {fileID: 0}
    - target: {fileID: 2661382043122964953, guid: 5fbca904ddad54333a2af0698375076d, type: 3}
      propertyPath: m_LocalRotation.z
      value: 0
      objectReference: {fileID: 0}
    - target: {fileID: 2661382043122964953, guid: 5fbca904ddad54333a2af0698375076d, type: 3}
      propertyPath: m_LocalEulerAnglesHint.x
      value: 0
      objectReference: {fileID: 0}
    - target: {fileID: 2661382043122964953, guid: 5fbca904ddad54333a2af0698375076d, type: 3}
      propertyPath: m_LocalEulerAnglesHint.y
      value: 0
      objectReference: {fileID: 0}
    - target: {fileID: 2661382043122964953, guid: 5fbca904ddad54333a2af0698375076d, type: 3}
      propertyPath: m_LocalEulerAnglesHint.z
      value: 0
      objectReference: {fileID: 0}
    - target: {fileID: 4850362008543637833, guid: 5fbca904ddad54333a2af0698375076d, type: 3}
      propertyPath: m_Name
      value: Landing Pad
      objectReference: {fileID: 0}
    m_RemovedComponents: []
  m_SourcePrefab: {fileID: 100100000, guid: 5fbca904ddad54333a2af0698375076d, type: 3}
--- !u!1001 &6495540925594806285
PrefabInstance:
  m_ObjectHideFlags: 0
  serializedVersion: 2
  m_Modification:
    m_TransformParent: {fileID: 0}
    m_Modifications:
    - target: {fileID: 4701801502763074370, guid: 6c45a73f9a52e4895a132a69c96161a7, type: 3}
      propertyPath: m_RootOrder
      value: 10
      objectReference: {fileID: 0}
    - target: {fileID: 4701801502763074370, guid: 6c45a73f9a52e4895a132a69c96161a7, type: 3}
      propertyPath: m_LocalPosition.x
      value: -28.04
      objectReference: {fileID: 0}
    - target: {fileID: 4701801502763074370, guid: 6c45a73f9a52e4895a132a69c96161a7, type: 3}
      propertyPath: m_LocalPosition.y
      value: 1.39
      objectReference: {fileID: 0}
    - target: {fileID: 4701801502763074370, guid: 6c45a73f9a52e4895a132a69c96161a7, type: 3}
      propertyPath: m_LocalPosition.z
      value: -1.63
      objectReference: {fileID: 0}
    - target: {fileID: 4701801502763074370, guid: 6c45a73f9a52e4895a132a69c96161a7, type: 3}
      propertyPath: m_LocalRotation.w
      value: 1
      objectReference: {fileID: 0}
    - target: {fileID: 4701801502763074370, guid: 6c45a73f9a52e4895a132a69c96161a7, type: 3}
      propertyPath: m_LocalRotation.x
      value: 0
      objectReference: {fileID: 0}
    - target: {fileID: 4701801502763074370, guid: 6c45a73f9a52e4895a132a69c96161a7, type: 3}
      propertyPath: m_LocalRotation.y
      value: 0
      objectReference: {fileID: 0}
    - target: {fileID: 4701801502763074370, guid: 6c45a73f9a52e4895a132a69c96161a7, type: 3}
      propertyPath: m_LocalRotation.z
      value: 0
      objectReference: {fileID: 0}
    - target: {fileID: 4701801502763074370, guid: 6c45a73f9a52e4895a132a69c96161a7, type: 3}
      propertyPath: m_LocalEulerAnglesHint.x
      value: 0
      objectReference: {fileID: 0}
    - target: {fileID: 4701801502763074370, guid: 6c45a73f9a52e4895a132a69c96161a7, type: 3}
      propertyPath: m_LocalEulerAnglesHint.y
      value: 0
      objectReference: {fileID: 0}
    - target: {fileID: 4701801502763074370, guid: 6c45a73f9a52e4895a132a69c96161a7, type: 3}
      propertyPath: m_LocalEulerAnglesHint.z
      value: 0
      objectReference: {fileID: 0}
    - target: {fileID: 5147443012087187838, guid: 6c45a73f9a52e4895a132a69c96161a7, type: 3}
      propertyPath: m_Name
      value: Rocket
      objectReference: {fileID: 0}
    m_RemovedComponents: []
  m_SourcePrefab: {fileID: 100100000, guid: 6c45a73f9a52e4895a132a69c96161a7, type: 3}
